^C:\USERS\LENOVO\SOURCE\REPOS\UNO\UNO\PCH.CPP
/c /Zi /nologo /W3 /WX- /diagnostics:classic /sdl /O2 /Oi /Oy- /GL /D WIN32 /D NDEBUG /D _CONSOLE /D _UNICODE /D UNICODE /Gm- /EHsc /MT /GS /Gy /fp:precise /permissive- /Zc:wchar_t /Zc:forScope /Zc:inline /Yc"pch.h" /Fp"RELEASE\UNO.PCH" /Fo"RELEASE\\" /Fd"RELEASE\VC141.PDB" /Gd /TP /analyze- /FC C:\USERS\LENOVO\SOURCE\REPOS\UNO\UNO\PCH.CPP
^C:\USERS\LENOVO\SOURCE\REPOS\UNO\UNO\CARTA.CPP
/c /Zi /nologo /W3 /WX- /diagnostics:classic /sdl /O2 /Oi /Oy- /GL /D WIN32 /D NDEBUG /D _CONSOLE /D _UNICODE /D UNICODE /Gm- /EHsc /MT /GS /Gy /fp:precise /permissive- /Zc:wchar_t /Zc:forScope /Zc:inline /Yu"pch.h" /Fp"RELEASE\UNO.PCH" /Fo"RELEASE\\" /Fd"RELEASE\VC141.PDB" /Gd /TP /analyze- /FC C:\USERS\LENOVO\SOURCE\REPOS\UNO\UNO\CARTA.CPP
^C:\USERS\LENOVO\SOURCE\REPOS\UNO\UNO\FRACAO.CPP
/c /Zi /nologo /W3 /WX- /diagnostics:classic /sdl /O2 /Oi /Oy- /GL /D WIN32 /D NDEBUG /D _CONSOLE /D _UNICODE /D UNICODE /Gm- /EHsc /MT /GS /Gy /fp:precise /permissive- /Zc:wchar_t /Zc:forScope /Zc:inline /Yu"pch.h" /Fp"RELEASE\UNO.PCH" /Fo"RELEASE\\" /Fd"RELEASE\VC141.PDB" /Gd /TP /analyze- /FC C:\USERS\LENOVO\SOURCE\REPOS\UNO\UNO\FRACAO.CPP
^C:\USERS\LENOVO\SOURCE\REPOS\UNO\UNO\GAME.CPP
/c /Zi /nologo /W3 /WX- /diagnostics:classic /sdl /O2 /Oi /Oy- /GL /D WIN32 /D NDEBUG /D _CONSOLE /D _UNICODE /D UNICODE /Gm- /EHsc /MT /GS /Gy /fp:precise /permissive- /Zc:wchar_t /Zc:forScope /Zc:inline /Yu"pch.h" /Fp"RELEASE\UNO.PCH" /Fo"RELEASE\\" /Fd"RELEASE\VC141.PDB" /Gd /TP /analyze- /FC C:\USERS\LENOVO\SOURCE\REPOS\UNO\UNO\GAME.CPP
^C:\USERS\LENOVO\SOURCE\REPOS\UNO\UNO\PLAYER.CPP
/c /Zi /nologo /W3 /WX- /diagnostics:classic /sdl /O2 /Oi /Oy- /GL /D WIN32 /D NDEBUG /D _CONSOLE /D _UNICODE /D UNICODE /Gm- /EHsc /MT /GS /Gy /fp:precise /permissive- /Zc:wchar_t /Zc:forScope /Zc:inline /Yu"pch.h" /Fp"RELEASE\UNO.PCH" /Fo"RELEASE\\" /Fd"RELEASE\VC141.PDB" /Gd /TP /analyze- /FC C:\USERS\LENOVO\SOURCE\REPOS\UNO\UNO\PLAYER.CPP
^C:\USERS\LENOVO\SOURCE\REPOS\UNO\UNO\PROB.CPP
/c /Zi /nologo /W3 /WX- /diagnostics:classic /sdl /O2 /Oi /Oy- /GL /D WIN32 /D NDEBUG /D _CONSOLE /D _UNICODE /D UNICODE /Gm- /EHsc /MT /GS /Gy /fp:precise /permissive- /Zc:wchar_t /Zc:forScope /Zc:inline /Yu"pch.h" /Fp"RELEASE\UNO.PCH" /Fo"RELEASE\\" /Fd"RELEASE\VC141.PDB" /Gd /TP /analyze- /FC C:\USERS\LENOVO\SOURCE\REPOS\UNO\UNO\PROB.CPP
^C:\USERS\LENOVO\SOURCE\REPOS\UNO\UNO\TIMER.CPP
/c /Zi /nologo /W3 /WX- /diagnostics:classic /sdl /O2 /Oi /Oy- /GL /D WIN32 /D NDEBUG /D _CONSOLE /D _UNICODE /D UNICODE /Gm- /EHsc /MT /GS /Gy /fp:precise /permissive- /Zc:wchar_t /Zc:forScope /Zc:inline /Yu"pch.h" /Fp"RELEASE\UNO.PCH" /Fo"RELEASE\\" /Fd"RELEASE\VC141.PDB" /Gd /TP /analyze- /FC C:\USERS\LENOVO\SOURCE\REPOS\UNO\UNO\TIMER.CPP
^C:\USERS\LENOVO\SOURCE\REPOS\UNO\UNO\UNO.CPP
/c /Zi /nologo /W3 /WX- /diagnostics:classic /sdl /O2 /Oi /Oy- /GL /D WIN32 /D NDEBUG /D _CONSOLE /D _UNICODE /D UNICODE /Gm- /EHsc /MT /GS /Gy /fp:precise /permissive- /Zc:wchar_t /Zc:forScope /Zc:inline /Yu"pch.h" /Fp"RELEASE\UNO.PCH" /Fo"RELEASE\\" /Fd"RELEASE\VC141.PDB" /Gd /TP /analyze- /FC C:\USERS\LENOVO\SOURCE\REPOS\UNO\UNO\UNO.CPP
^C:\USERS\SAURON\SOURCE\REPOS\UNO\UNO\PCH.CPP
/c /Zi /nologo /W3 /WX- /diagnostics:classic /sdl /O2 /Oi /Oy- /GL /D WIN32 /D NDEBUG /D _CONSOLE /D _UNICODE /D UNICODE /Gm- /EHsc /MT /GS /Gy /fp:precise /permissive- /Zc:wchar_t /Zc:forScope /Zc:inline /Yc"pch.h" /Fp"RELEASE\UNO.PCH" /Fo"RELEASE\\" /Fd"RELEASE\VC141.PDB" /Gd /TP /analyze- /FC C:\USERS\SAURON\SOURCE\REPOS\UNO\UNO\PCH.CPP
^C:\USERS\SAURON\SOURCE\REPOS\UNO\UNO\CARTA.CPP
/c /Zi /nologo /W3 /WX- /diagnostics:classic /sdl /O2 /Oi /Oy- /GL /D WIN32 /D NDEBUG /D _CONSOLE /D _UNICODE /D UNICODE /Gm- /EHsc /MT /GS /Gy /fp:precise /permissive- /Zc:wchar_t /Zc:forScope /Zc:inline /Yu"pch.h" /Fp"RELEASE\UNO.PCH" /Fo"RELEASE\\" /Fd"RELEASE\VC141.PDB" /Gd /TP /analyze- /FC C:\USERS\SAURON\SOURCE\REPOS\UNO\UNO\CARTA.CPP
^C:\USERS\SAURON\SOURCE\REPOS\UNO\UNO\FRACAO.CPP
/c /Zi /nologo /W3 /WX- /diagnostics:classic /sdl /O2 /Oi /Oy- /GL /D WIN32 /D NDEBUG /D _CONSOLE /D _UNICODE /D UNICODE /Gm- /EHsc /MT /GS /Gy /fp:precise /permissive- /Zc:wchar_t /Zc:forScope /Zc:inline /Yu"pch.h" /Fp"RELEASE\UNO.PCH" /Fo"RELEASE\\" /Fd"RELEASE\VC141.PDB" /Gd /TP /analyze- /FC C:\USERS\SAURON\SOURCE\REPOS\UNO\UNO\FRACAO.CPP
^C:\USERS\SAURON\SOURCE\REPOS\UNO\UNO\PROB.CPP
/c /Zi /nologo /W3 /WX- /diagnostics:classic /sdl /O2 /Oi /Oy- /GL /D WIN32 /D NDEBUG /D _CONSOLE /D _UNICODE /D UNICODE /Gm- /EHsc /MT /GS /Gy /fp:precise /permissive- /Zc:wchar_t /Zc:forScope /Zc:inline /Yu"pch.h" /Fp"RELEASE\UNO.PCH" /Fo"RELEASE\\" /Fd"RELEASE\VC141.PDB" /Gd /TP /analyze- /FC C:\USERS\SAURON\SOURCE\REPOS\UNO\UNO\PROB.CPP
^C:\USERS\SAURON\SOURCE\REPOS\UNO\UNO\TIMER.CPP
/c /Zi /nologo /W3 /WX- /diagnostics:classic /sdl /O2 /Oi /Oy- /GL /D WIN32 /D NDEBUG /D _CONSOLE /D _UNICODE /D UNICODE /Gm- /EHsc /MT /GS /Gy /fp:precise /permissive- /Zc:wchar_t /Zc:forScope /Zc:inline /Yu"pch.h" /Fp"RELEASE\UNO.PCH" /Fo"RELEASE\\" /Fd"RELEASE\VC141.PDB" /Gd /TP /analyze- /FC C:\USERS\SAURON\SOURCE\REPOS\UNO\UNO\TIMER.CPP
^C:\USERS\SAURON\SOURCE\REPOS\UNO\UNO\UNO.CPP
/c /Zi /nologo /W3 /WX- /diagnostics:classic /sdl /O2 /Oi /Oy- /GL /D WIN32 /D NDEBUG /D _CONSOLE /D _UNICODE /D UNICODE /Gm- /EHsc /MT /GS /Gy /fp:precise /permissive- /Zc:wchar_t /Zc:forScope /Zc:inline /Yu"pch.h" /Fp"RELEASE\UNO.PCH" /Fo"RELEASE\\" /Fd"RELEASE\VC141.PDB" /Gd /TP /analyze- /FC C:\USERS\SAURON\SOURCE\REPOS\UNO\UNO\UNO.CPP
^C:\USERS\SAURON\SOURCE\REPOS\UNO\UNO\GAME.CPP
/c /Zi /nologo /W3 /WX- /diagnostics:classic /sdl /O2 /Oi /Oy- /GL /D WIN32 /D NDEBUG /D _CONSOLE /D _UNICODE /D UNICODE /Gm- /EHsc /MT /GS /Gy /fp:precise /permissive- /Zc:wchar_t /Zc:forScope /Zc:inline /Yu"pch.h" /Fp"RELEASE\UNO.PCH" /Fo"RELEASE\\" /Fd"RELEASE\VC141.PDB" /Gd /TP /analyze- /FC C:\USERS\SAURON\SOURCE\REPOS\UNO\UNO\GAME.CPP
^C:\USERS\SAURON\SOURCE\REPOS\UNO\UNO\PLAYER.CPP
/c /Zi /nologo /W3 /WX- /diagnostics:classic /sdl /O2 /Oi /Oy- /GL /D WIN32 /D NDEBUG /D _CONSOLE /D _UNICODE /D UNICODE /Gm- /EHsc /MT /GS /Gy /fp:precise /permissive- /Zc:wchar_t /Zc:forScope /Zc:inline /Yu"pch.h" /Fp"RELEASE\UNO.PCH" /Fo"RELEASE\\" /Fd"RELEASE\VC141.PDB" /Gd /TP /analyze- /FC C:\USERS\SAURON\SOURCE\REPOS\UNO\UNO\PLAYER.CPP
