^C:\USERS\SAURON\SOURCE\REPOS\UNO\UNO\RELEASE\CARTA.OBJ|C:\USERS\SAURON\SOURCE\REPOS\UNO\UNO\RELEASE\FRACAO.OBJ|C:\USERS\SAURON\SOURCE\REPOS\UNO\UNO\RELEASE\GAME.OBJ|C:\USERS\SAURON\SOURCE\REPOS\UNO\UNO\RELEASE\PCH.OBJ|C:\USERS\SAURON\SOURCE\REPOS\UNO\UNO\RELEASE\PLAYER.OBJ|C:\USERS\SAURON\SOURCE\REPOS\UNO\UNO\RELEASE\PROB.OBJ|C:\USERS\SAURON\SOURCE\REPOS\UNO\UNO\RELEASE\PROPERTIES.RES|C:\USERS\SAURON\SOURCE\REPOS\UNO\UNO\RELEASE\TIMER.OBJ|C:\USERS\SAURON\SOURCE\REPOS\UNO\UNO\RELEASE\UNO.OBJ
C:\USERS\SAURON\SOURCE\REPOS\UNO\RELEASE\UNO.EXE
C:\USERS\SAURON\SOURCE\REPOS\UNO\RELEASE\UNO.PDB
