^C:\USERS\LENOVO\SOURCE\REPOS\UNO\UNO\PROPERTIES.RC
/D _UNICODE /D UNICODE /l"0x0409" /nologo /fo"DEBUG\PROPERTIES.RES"   C:\USERS\LENOVO\SOURCE\REPOS\UNO\UNO\PROPERTIES.RC
^C:\USERS\SAURON\SOURCE\REPOS\UNO\UNO\PROPERTIES.RC
/D _UNICODE /D UNICODE /l"0x0409" /nologo /fo"DEBUG\PROPERTIES.RES"   C:\USERS\SAURON\SOURCE\REPOS\UNO\UNO\PROPERTIES.RC
